{
    "Name": "Ground Station",
    "Identifier": "2737AFDF-A1AA-48C3-BE17-0F5F03282AEB",
    "Version": {
        "Major": "3",
        "Minor": "0",
        "Patch": "0",
        "Build": "106"
    },
    "Author": "Dale Ghent",
    "Homepage": "https://daleghent.com/ground-station",
    "Repository": "https://github.com/daleghent/nina-ground-station",
    "License": "MPL-2.0",
    "LicenseURL": "https://www.mozilla.org/en-US/MPL/2.0/",
    "ChangelogURL": "https://github.com/daleghent/nina-ground-station/blob/gs3/CHANGELOG.md",
    "Tags": [
        "notifications",
        "alerts",
        "ifttt",
        "email",
        "pushover",
        "mqtt"
    ],
    "MinimumApplicationVersion": {
        "Major": "3",
        "Minor": "2",
        "Patch": "0",
        "Build": "1002"
    },
    "Descriptions": {
        "ShortDescription": "Send failure events and free-form messages to a variety of messaging or automation services",
        "LongDescription": "Ground Station provides remote messaging instructions and triggers for use in NINA's Advanced Sequencer. This allows you to send alerts to messaging platforms and orchestrate IoT devices and services directly from Advanced Sequencer.\r\n\r\nThe provided instructions and triggers can be broken down in to two general categories:\r\n\r\n* Instructions for sending free form messages to a variety of services\r\n* Triggers for sending messages to services when something in the sequence experiences a failure\r\n\r\n# Supported networked services #\r\n\r\n* Pushover — Simple and reliable desktop and iOS/Android push messaging. Pushover charges a one-time $5 per-device fee to support its service\r\n* Telegram — Utilize the [Telegram bot API](https://core.telegram.org/bots/api) to send messages a Telegram channel\r\n* ntfy.sh — A simple, no-frills notification service that can send messages to a variety of platforms\r\n* Discord — Send messages to Discord channels using a webhook URL\r\n* Slack — Send messages to Slack channels via OAuth2 token authentication\r\n* Email — Who doesn't love plain old email? Plain SMTP with user auth and SSL/TLS support\r\n* HTTP - Send a generic HTTP GET or POST request to a URL\r\n* IFTTT Webhooks — If This Then That. An easy to use configurable webhooks-based gateway to control a wide variety of messaging platforms and IoT devices. Taking full advantage requires an IFTTT Pro account\r\n* MQTT — Publish free-form payloads to a topic on a MQTT broker. Failures are published to a specified topic with information packaged in a JSON object\r\n* TTS - Reads out a Ground Station message through Windows' Text-to-Speech facility\r\n* UDP - Send a UDP packet that contains an ASCII or binary payload to a specified hostname and port\r\n\r\n# Audio service #\r\n\r\n* TTS - Annunciate a message using text-to-speech\r\n* Play Sound - Plays a sound file (WAV, MP3, AIFF)\r\n\r\nInformation about your session or any failures may be inserted into the messages by the use of tokens. These tokens are described on the **Message Token Help** tab.\r\n\r\n# Getting help #\r\n\r\nHelp for this plugin may be found in the **#plugin-discussions** channel on the NINA project [Discord chat server](https://discord.com/invite/rWRbVbw) or by filing an issue report at this plugin's [Github repository](https://github.com/daleghent/nina-plugins/issues).\r\n\r\n* Some services charge a subscription or one-time fee to utilize them\r\n* Most services require an Internet connection in order to function\r\n* I do not provide in-depth technical support or training for the services themselves\r\n* Ground Station is provided 'as is' under the terms of the [Mozilla Public License 2.0](https://github.com/daleghent/nina-plugins/blob/main/LICENSE.txt)\r\n* Source code for this plugin is available in my NINA plugins [source code repository](https://github.com/daleghent/nina-plugins)\r\n* If you would like, you may [buy me a coffee](https://buymeacoffee.com/daleghent)",
        "FeaturedImageURL": "https://daleghent.github.io/nina-plugins/assets/images/ground-station-logo1.png",
        "ScreenshotURL": "https://daleghent.github.io/nina-plugins/assets/images/gs-example1.jpg",
        "AltScreenshotURL": "https://daleghent.github.io/nina-plugins/assets/images/gs-example2.png"
    },
    "Installer": {
        "URL": "https://daleghent.com/dist/ground-station/GroundStation-3.0.0.107.zip",
        "Type": "ARCHIVE",
        "Checksum": "C85A51450D373082ADD90D0B37FE1CEB41E3C05695D02396EA36086144F692E8",
        "ChecksumType": "SHA256"
    },
    "Channel": "Beta"
}
